[
  {
    "model": "cctorrent.License",
    "pk": 0,
    "fields":
    {
      "short_name": "CC BY 4.0",
      "name":"Creative Commons Attribution 4.0 International",
      "url":"https://creativecommons.org/licenses/by/4.0/"
    }
  },
  {
    "model": "cctorrent.License",
    "pk": 1,
    "fields":
    {
      "short_name": "CC BY-SA 4.0",
      "name":"Creative Commons Attribution-ShareAlike 4.0 International",
      "url":"https://creativecommons.org/licenses/by-sa/4.0/"
    }
  },
  
  {
    "model": "cctorrent.License",
    "pk": 2,
    "fields":
    {
      "short_name": "CC BY-NC 4.0",
      "name":"Creative Commons Attribution-NonCommercial 4.0 International",
      "url":"https://creativecommons.org/licenses/by-nc/4.0/"
    }
  },
  {
    "model": "cctorrent.License",
    "pk": 3,
    "fields":
    {
      "short_name": "CC BY-NC-SA 4.0",
      "name":"Creative Commons Attribution-NonCommercial-ShareAlike 4.0 International",
      "url":"https://creativecommons.org/licenses/by-nc-sa/4.0/"
    }
  },
  
  {
    "model": "cctorrent.License",
    "pk": 4,
    "fields":
    {
      "short_name": "CC BY-ND 4.0",
      "name":"Creative Commons Attribution-NoDerivatives 4.0 International",
      "url":"https://creativecommons.org/licenses/by-nd/4.0/"
    }
  },
  {
    "model": "cctorrent.License",
    "pk": 5,
    "fields":
    {
      "short_name": "CC BY-NC-ND 4.0",
      "name":"Creative Commons Attribution-NonCommercial-NoDerivatives 4.0 International",
      "url":"https://creativecommons.org/licenses/by-nc-nd/4.0/"
    }
  }
]